{
  "Transcation": true,
  "Response": [ 		
		{
			"name"  : "Repo1",
			"link"  : "http://www.repo1.com",
			"owner" : [
						{
							"id" : 1,
							"emailId" : "owner1@gmail.com",
							"name" : "owner1"
						},
						{
							"id" : 2,
							"emailId" : "owner2@gmail.com",
							"name" : "owner2"
						}
					],
			"reviewer" : [
						{
							"id" : 3,
							"emailId" : "reviewer3@gmail.com",
							"name" : "reviewer3"
						},
						{
							"id" : 5,
							"emailId" : "reviewer5@gmail.com",
							"name" : "reviewer5"
						}
					],
			"repoType" : "Component",
			"dependency" : [
						{
							"package" : "package1",
							"version" : "1.0.0"
						},
						{
							"package" : "package2",
							"version" : "2.0.0"
						}
					]
		},
		{
			"name"  : "Repo 2",
			"link"  : "http://www.Repo2.com",
			"owner" : [
						{
							"id" : 5,
							"emailId" : "owner5@gmail.com",
							"name" : "owner5"
						},
						{
							"id" : 2,
							"emailId" : "owner2@gmail.com",
							"name" : "owner2"
						}
					],
			"reviewer" : [
						{
							"id" : 8,
							"emailId" : "reviewer8@gmail.com",
							"name" : "reviewer8"
						},
						{
							"id" : 3,
							"emailId" : "reviewer3@gmail.com",
							"name" : "reviewer3"
						}
					],
			"repoType" : "Application",
			"dependency" : [
						{
							"package" : "package3",
							"version" : "3.0.0"
						},
						{
							"package" : "package2",
							"version" : "2.0.0"
						}
					]
		},
		{
			"name"  : "Repo 3",
			"link"  : "http://www.Repo3.com",
			"owner" : [
						{
							"id" : 7,
							"emailId" : "owner7@gmail.com",
							"name" : "owner7"
						},
						{
							"id" : 6,
							"emailId" : "owner6@gmail.com",
							"name" : "owner6"
						}
					],
			"reviewer" : [
						{
							"id" : 2,
							"emailId" : "reviewer2@gmail.com",
							"name" : "reviewer2"
						},
						{
							"id" : 9,
							"emailId" : "reviewer9@gmail.com",
							"name" : "reviewer9"
						}
					],
			"repoType" : "Module",
			"dependency" : [
						{
							"package" : "package5",
							"version" : "5.0.0"
						},
						{
							"package" : "package2",
							"version" : "2.0.0"
						}
					]
		}		
  ]
}